[gd_scene load_steps=2 format=2]

[ext_resource path="res://menus/MainMenu.gd" type="Script" id=1]

[node name="MainMenu" type="Control"]
anchor_right = 1.0
anchor_bottom = 1.0
script = ExtResource( 1 )
__meta__ = {
"_edit_use_anchors_": false
}

[node name="TrackSelector" type="SpinBox" parent="."]
anchor_left = 0.5
anchor_top = 0.5
anchor_right = 0.5
anchor_bottom = 0.5
margin_left = -37.0
margin_top = -12.0
margin_right = 37.0
margin_bottom = 12.0
max_value = 1.0
__meta__ = {
"_edit_use_anchors_": false
}

[node name="VolumeSlider" type="HSlider" parent="."]
anchor_left = 0.5
anchor_top = 0.686667
anchor_right = 0.5
anchor_bottom = 0.686667
margin_left = -164.5
margin_top = -8.0
margin_right = 164.5
margin_bottom = 8.0
max_value = 1.0
step = 0.01
__meta__ = {
"_edit_use_anchors_": true
}

[connection signal="value_changed" from="TrackSelector" to="." method="_on_TrackSelector_value_changed"]
[connection signal="value_changed" from="VolumeSlider" to="." method="_on_VolumeSlider_value_changed"]
